[
  {
	"bsn": "999999990",
	"voorletters": "F.S.",
	"voornamen": "Fien Sandra",
	"achternaam": "de Jager",
	"huisnummer": "14",
	"postcode": "9999ZZ",
	"straatnaam": "Winkelstraat",
	"plaatsnaam": "Sloothuizen",
	"geboortedatum": "1987-06-18",
	"email": "fien.de.jager@sloothuizen.nl",
	"telefoonnummer": "0687542132",
	"rekeningen": [
	  {"iban": "NL84INGB2266765221", "rekeninghouder": "F. de Jager"}
	],
	"afspraken": [
	  {
		"rubriek": {
		  "naam": "Inkomsten"
		},
		"omschrijving": "Loon",
		"organisatie": {
		  "kvknummer": "35012085"
		},
		"bedrag": 765.32,
		"credit": true,
		"validFrom": "2021-01-01",
		"zoektermen": [
		  "Loon",
		  "ZOEKTERMPERSONA1"
		]
	  },
	  {
		"rubriek": {"naam": "Uitkeringen"},
		"omschrijving": "Aanvullende uitkering",
		"organisatie": {
		  "kvknummer": "30280353"
		},
		"bedrag": 147.84,
		"credit": true,
		"validFrom": "2019-01-07",
		"zoektermen": [
		  "Aanvullende uitkering",
		  "ZOEKTERMPERSONA1"
		]
	  },
	  {
		"rubriek": {"naam": "Toeslagen"},
		"omschrijving": "Voorschot kindgebonden budget",
		"organisatie": {
		  "kvknummer": "27365323"
		},
		"bedrag": 391.00,
		"credit": true,
		"validFrom": "2019-01-20",
		"zoektermen": [
		  "999999990",
		  "VOORSCHOT KIT/Kgb"
		]
	  },
	  {
		"rubriek": {"naam": "Toeslagen"},
		"omschrijving": "Voorschot huurtoeslag",
		"organisatie": {
		  "kvknummer": "27365323"
		},
		"bedrag": 322.00,
		"credit": true,
		"validFrom": "2019-01-20",
		"zoektermen": [
		  "999999990",
		  "VOORSCHOT HUURTOESLAG"
		]
	  },
	  {
		"rubriek": {"naam": "Toeslagen"},
		"omschrijving": "Voorschot zorgtoeslag",
		"organisatie": {
		  "kvknummer": "27365323"
		},
		"bedrag": 107.00,
		"credit": true,
		"validFrom": "2019-01-20",
		"zoektermen": [
		  "999999990",
		  "VOORSCHOT ZORGTOESLAG"
		]
	  },
	  {
		"rubriek": {"naam": "Huur of hypotheek"},
		"omschrijving": "Huur",
		"organisatie": {
		  "kvknummer": "30038487"
		},
		"bedrag": 647.35,
		"credit": false,
		"validFrom": "2019-01-01",
		"zoektermen": [
		  "Betaalde huur",
		  "ZOEKTERMPERSONA1"
		]
	  },
	  {
		"rubriek": {"naam": "Gas en elektriciteit"},
		"omschrijving": "Elektriciteit",
		"organisatie": {
		  "kvknummer": "05082820"
		},
		"bedrag": 132.00,
		"credit": false,
		"validFrom": "2019-01-01",
		"zoektermen": [
		  "Elektriciteit",
		  "ZOEKTERMPERSONA1"
		]
	  },
	  {
		"rubriek": {"naam": "Water"},
		"omschrijving": "Water",
		"organisatie": {
		  "kvknummer": "05069581"
		},
		"bedrag": 41.61,
		"credit": false,
		"validFrom": "2021-01-01",
		"zoektermen": [
		  "Water",
		  "ZOEKTERMPERSONA1"
		]
	  },
	  {
		"rubriek": {"naam": "Privé-opname"},
		"omschrijving": "Leefgeld",
		"bedrag": 939.94,
		"credit": false,
		"validFrom": "2021-01-01",
		"zoektermen": [
		  "Leefgeld",
		  "ZOEKTERMPERSONA1"
		],
		"betaalinstructie": {
		  "byMonth": [1, 2, 3, 4, 5, 6, 7, 8, 9, 10, 11, 12],
		  "byMonthDay": 1,
		  "startDate": "2021-01-01"
		}
	  }
	]
  },
  {
	"bsn": "999999989",
	"voorletters": "H.J.",
	"voornamen": "Henk-Jan",
	"achternaam": "Poortvliet",
	"huisnummer": "37B",
	"postcode": "9999ZZ",
	"straatnaam": "Spoorlaan",
	"plaatsnaam": "Sloothuizen",
	"geboortedatum": "1964-08-14",
	"email": "henkjanpoortvliet@sloothuizen.nl",
	"telefoonnummer": "0698653212",
	"rekeningen": [
	  {"iban": "NL83ABNA1927261899", "rekeninghouder": "H.J. Poortvliet"},
	  {"iban": "NL58INGB5228863516", "rekeninghouder": "H.J. Poortvliet en/of A.B. Zee"}
	],
	"afspraken": [
	  {
		"rubriek": {"naam": "Uitkeringen"},
		"omschrijving": "Aanvullende uitkering minus terugvordering",
		"organisatie": {
		  "kvknummer": "30280353"
		},
		"bedrag": 104.85,
		"credit": true,
		"validFrom": "2019-01-07",
		"zoektermen": [
		  "Aanvullende uitkering",
		  "ZOEKTERMPERSONA2"
		]
	  },
	  {
		"rubriek": {"naam": "Inkomsten"},
		"omschrijving": "Loon",
		"organisatie": {
		  "kvknummer": "35012085"
		},
		"bedrag": 1669.12,
		"credit": true,
		"validFrom": "2021-01-01",
		"zoektermen": [
		  "Loon",
		  "ZOEKTERMPERSONA2"
		]
	  },
	  {
		"rubriek": {"naam": "Toeslagen"},
		"omschrijving": "Voorschot huurtoeslag",
		"organisatie": {
		  "kvknummer": "27365323"
		},
		"bedrag": 286.00,
		"credit": true,
		"validFrom": "2019-01-20",
		"zoektermen": [
		  "999999989",
		  "VOORSCHOT HUURTOESLAG"
		]
	  },
	  {
		"rubriek": {"naam": "Toeslagen"},
		"omschrijving": "Voorschot zorgtoeslag",
		"organisatie": {
		  "kvknummer": "27365323"
		},
		"bedrag": 107.00,
		"credit": true,
		"validFrom": "2019-01-20",
		"zoektermen": [
		  "999999989",
		  "VOORSCHOT ZORGTOESLAG"
		]
	  },
	  {
		"rubriek": {"naam": "Inkomsten"},
		"omschrijving": "Bijdrage Vaste Lasten Pakket",
		"organisatie": {
		  "kvknummer": "73834238"
		},
		"bedrag": 30.00,
		"credit": true,
		"validFrom": "2021-01-01",
		"zoektermen": [
		  "Vaste Lasten Pakket",
		  "ZOEKTERMPERSONA2"
		]
	  },
	  {
		"rubriek": {"naam": "Huur of hypotheek"},
		"omschrijving": "Huur",
		"organisatie": {
		  "kvknummer": "30038487"
		},
		"bedrag": 570.77,
		"credit": false,
		"validFrom": "2019-01-01",
		"zoektermen": [
		  "Betaalde huur",
		  "ZOEKTERMPERSONA2"
		]
	  },
	  {
		"rubriek": {"naam": "Gas en elektriciteit"},
		"omschrijving": "Elektriciteit",
		"organisatie": {
		  "kvknummer": "24324527"
		},
		"bedrag": 122.00,
		"credit": false,
		"validFrom": "2019-01-01",
		"zoektermen": [
		  "Elektriciteit",
		  "ZOEKTERMPERSONA2"
		]
	  },
	  {
		"rubriek": {"naam": "Verzekeringen"},
		"omschrijving": "Zorgverzekering",
		"organisatie": {
		  "kvknummer": "41168265"
		},
		"bedrag": 181.34,
		"credit": false,
		"validFrom": "2019-01-01",
		"zoektermen": [
		  "Zorgverzekering",
		  "ZOEKTERMPERSONA2"
		]
	  },
	  {
		"rubriek": {"naam": "Water"},
		"omschrijving": "Water",
		"organisatie": {
		  "kvknummer": "05069581"
		},
		"bedrag": 45.77,
		"credit": false,
		"validFrom": "2019-01-01",
		"zoektermen": [
		  "Water",
		  "ZOEKTERMPERSONA2"
		]
	  },
	  {
		"rubriek": {"naam": "Privé-opname"},
		"omschrijving": "Leefgeld",
		"bedrag": 1195.20,
		"credit": false,
		"validFrom": "2019-01-01",
		"zoektermen": [
		  "Leefgeld",
		  "ZOEKTERMPERSONA2"
		],
		"betaalinstructie": {
		  "byMonth": [1, 2, 3, 4, 5, 6, 7, 8, 9, 10, 11, 12],
		  "byMonthDay": 10,
		  "startDate": "2019-01-01"
		}
	  },
	  {
		"rubriek": {"naam": "Verzekeringen"},
		"omschrijving": "Inboedelverzekering",
		"organisatie": {
		  "kvknummer": "69653852"
		},
		"bedrag": 19.52,
		"credit": false,
		"validFrom": "2019-01-01",
		"zoektermen": [
		  "Inboedelverzekering",
		  "ZOEKTERMPERSONA2"
		]
	  },
	  {
		"rubriek": {"naam": "Telefoon, internet en televisie"},
		"omschrijving": "Vaste telefonie en internet",
		"organisatie": {
		  "kvknummer": "27124701"
		},
		"bedrag": 62.88,
		"credit": false,
		"validFrom": "2019-01-01",
		"zoektermen": [
		  "Vaste telefonie en internet",
		  "ZOEKTERMPERSONA2"
		]
	  },
	  {
		"rubriek": {"naam": "Telefoon, internet en televisie"},
		"omschrijving": "Mobiele telefonie",
		"organisatie": {
		  "kvknummer": "14052264"
		},
		"bedrag": 30.00,
		"credit": false,
		"validFrom": "2019-01-01",
		"zoektermen": [
		  "Mobiele telefonie",
		  "ZOEKTERMPERSONA2"
		]
	  }
	]
  },
  {
	"bsn": "999999977",
	"voorletters": "C.R.D.",
	"voornamen": "Christel Ramone Davina",
	"achternaam": "Poortvliet",
	"huisnummer": "37B",
	"postcode": "9999ZZ",
	"straatnaam": "Spoorlaan",
	"plaatsnaam": "Sloothuizen",
	"geboortedatum": "1968-08-14",
	"email": "krdpoortvliet@sloothuizen.nl",
	"telefoonnummer": "0632659887",
	"rekeningen": [
	  {"iban": "NL05ABNA1578530261", "rekeninghouder": "K.R.D. Poortvliet"}
	],
	"afspraken": [
	  {
		"rubriek": {
		  "naam": "Inkomsten"
		},
		"omschrijving": "Loon",
		"organisatie": {
		  "kvknummer": "35012085"
		},
		"bedrag": 765.32,
		"credit": true,
		"validFrom": "2021-01-01",
		"zoektermen": [
		  "Loon",
		  "ZOEKTERMPERSONA3"
		]
	  },
	  {
		"rubriek": {"naam": "Uitkeringen"},
		"omschrijving": "Aanvullende uitkering",
		"organisatie": {
		  "kvknummer": "30280353"
		},
		"bedrag": 147.84,
		"credit": true,
		"validFrom": "2019-01-07",
		"zoektermen": [
		  "Aanvullende uitkering",
		  "ZOEKTERMPERSONA3"
		]
	  },
	  {
		"rubriek": {"naam": "Toeslagen"},
		"omschrijving": "Voorschot kindgebonden budget",
		"organisatie": {
		  "kvknummer": "27365323"
		},
		"bedrag": 391.00,
		"credit": true,
		"validFrom": "2019-01-20",
		"zoektermen": [
		  "999999977",
		  "VOORSCHOT KIT/Kgb"
		]
	  },
	  {
		"rubriek": {"naam": "Toeslagen"},
		"omschrijving": "Voorschot huurtoeslag",
		"organisatie": {
		  "kvknummer": "27365323"
		},
		"bedrag": 322.00,
		"credit": true,
		"validFrom": "2019-01-20",
		"zoektermen": [
		  "999999977",
		  "VOORSCHOT HUURTOESLAG"
		]
	  },
	  {
		"rubriek": {"naam": "Toeslagen"},
		"omschrijving": "Voorschot zorgtoeslag",
		"organisatie": {
		  "kvknummer": "27365323"
		},
		"bedrag": 107.00,
		"credit": true,
		"validFrom": "2019-01-20",
		"zoektermen": [
		  "999999977",
		  "VOORSCHOT ZORGTOESLAG"
		]
	  },
	  {
		"rubriek": {"naam": "Huur of hypotheek"},
		"omschrijving": "Huur",
		"organisatie": {
		  "kvknummer": "30038487"
		},
		"bedrag": 647.35,
		"credit": false,
		"validFrom": "2019-01-01",
		"zoektermen": [
		  "Betaalde huur",
		  "ZOEKTERMPERSONA3"
		]
	  },
	  {
		"rubriek": {"naam": "Gas en elektriciteit"},
		"omschrijving": "Elektriciteit",
		"organisatie": {
		  "kvknummer": "05082820"
		},
		"bedrag": 132.00,
		"credit": false,
		"validFrom": "2019-01-01",
		"zoektermen": [
		  "Elektriciteit",
		  "ZOEKTERMPERSONA3"
		]
	  },
	  {
		"rubriek": {"naam": "Water"},
		"omschrijving": "Water",
		"organisatie": {
		  "kvknummer": "05069581"
		},
		"bedrag": 41.61,
		"credit": false,
		"validFrom": "2021-01-01",
		"zoektermen": [
		  "Water",
		  "ZOEKTERMPERSONA3"
		]
	  },
	  {
		"rubriek": {"naam": "Privé-opname"},
		"omschrijving": "Leefgeld",
		"bedrag": 939.94,
		"credit": false,
		"validFrom": "2021-01-01",
		"zoektermen": [
		  "Leefgeld",
		  "ZOEKTERMPERSONA3"
		]
	  }
	]
  },
  {
	"bsn": "999999965",
	"voorletters": "C.",
	"voornamen": "Chris",
	"achternaam": "de Burg",
	"huisnummer": "91",
	"postcode": "9999ZZ",
	"straatnaam": "Het Laantje",
	"plaatsnaam": "Sloothuizen",
	"geboortedatum": "1982-04-11",
	"email": "chrisdeburg@sloothuizen.nl",
	"telefoonnummer": "0612456598",
	"rekeningen": [
	  {"iban": "NL56ABNA3971204384", "rekeninghouder": "C. de Burg"}
	],
	"afspraken": [
	  {
		"rubriek": {
		  "naam": "Inkomsten"
		},
		"omschrijving": "Loon",
		"organisatie": {
		  "kvknummer": "35012085"
		},
		"bedrag": 765.32,
		"credit": true,
		"validFrom": "2021-01-01",
		"zoektermen": [
		  "Loon",
		  "ZOEKTERMPERSONA4"
		]
	  },
	  {
		"rubriek": {"naam": "Uitkeringen"},
		"omschrijving": "Aanvullende uitkering",
		"organisatie": {
		  "kvknummer": "30280353"
		},
		"bedrag": 147.84,
		"credit": true,
		"validFrom": "2019-01-07",
		"zoektermen": [
		  "Aanvullende uitkering",
		  "ZOEKTERMPERSONA4"
		]
	  },
	  {
		"rubriek": {"naam": "Toeslagen"},
		"omschrijving": "Voorschot kindgebonden budget",
		"organisatie": {
		  "kvknummer": "27365323"
		},
		"bedrag": 391.00,
		"credit": true,
		"validFrom": "2019-01-20",
		"zoektermen": [
		  "999999965",
		  "VOORSCHOT KIT/Kgb"
		]
	  },
	  {
		"rubriek": {"naam": "Toeslagen"},
		"omschrijving": "Voorschot huurtoeslag",
		"organisatie": {
		  "kvknummer": "27365323"
		},
		"bedrag": 322.00,
		"credit": true,
		"validFrom": "2019-01-20",
		"zoektermen": [
		  "999999965",
		  "VOORSCHOT HUURTOESLAG"
		]
	  },
	  {
		"rubriek": {"naam": "Toeslagen"},
		"omschrijving": "Voorschot zorgtoeslag",
		"organisatie": {
		  "kvknummer": "27365323"
		},
		"bedrag": 107.00,
		"credit": true,
		"validFrom": "2019-01-20",
		"zoektermen": [
		  "999999965",
		  "VOORSCHOT ZORGTOESLAG"
		]
	  },
	  {
		"rubriek": {"naam": "Huur of hypotheek"},
		"omschrijving": "Huur",
		"organisatie": {
		  "kvknummer": "30038487"
		},
		"bedrag": 647.35,
		"credit": false,
		"validFrom": "2019-01-01",
		"zoektermen": [
		  "Betaalde huur",
		  "ZOEKTERMPERSONA4"
		]
	  },
	  {
		"rubriek": {"naam": "Gas en elektriciteit"},
		"omschrijving": "Elektriciteit",
		"organisatie": {
		  "kvknummer": "05082820"
		},
		"bedrag": 132.00,
		"credit": false,
		"validFrom": "2019-01-01",
		"zoektermen": [
		  "Elektriciteit",
		  "ZOEKTERMPERSONA4"
		]
	  },
	  {
		"rubriek": {"naam": "Water"},
		"omschrijving": "Water",
		"organisatie": {
		  "kvknummer": "05069581"
		},
		"bedrag": 41.61,
		"credit": false,
		"validFrom": "2021-01-01",
		"zoektermen": [
		  "Water",
		  "ZOEKTERMPERSONA4"
		]
	  },
	  {
		"rubriek": {"naam": "Privé-opname"},
		"omschrijving": "Leefgeld",
		"bedrag": 939.94,
		"credit": false,
		"validFrom": "2021-01-01",
		"zoektermen": [
		  "Leefgeld",
		  "ZOEKTERMPERSONA4"
		]
	  }
	]
  }
]
